{
    "results": [
        {
            "blocks_url": "https://courses.edx.org/api/courses/v2/blocks/?course_id=AdelaideX%2FHumBio101x%2F1T2015",
            "effort": null,
            "end": "2015-03-31T00:00:00Z",
            "enrollment_start": null,
            "enrollment_end": null,
            "id": "AdelaideX/HumBio101x/1T2015",
            "media": {
                "course_image": {
                    "uri": "/c4x/AdelaideX/HumBio101x/asset/image002.jpg"
                },
                "course_video": {
                    "uri": null
                },
                "image": {
                    "raw": "https://courses.edx.org/c4x/AdelaideX/HumBio101x/asset/image002.jpg",
                    "small": "https://courses.edx.org/c4x/AdelaideX/HumBio101x/thumbnail/image002-375x200.jpg",
                    "large": "https://courses.edx.org/c4x/AdelaideX/HumBio101x/thumbnail/image002-750x400.jpg"
                }
            },
            "name": "Essential Human Biology: Cells and Tissues",
            "number": "HumBio101x",
            "org": "AdelaideX",
            "short_description": "",
            "start": "2015-02-10T00:00:00Z",
            "start_display": "Feb. 10, 2015",
            "start_type": "timestamp",
            "pacing": "instructor",
            "mobile_available": true,
            "hidden": false,
            "invitation_only": false,
            "course_id": "AdelaideX/HumBio101x/1T2015"
        },
        {
            "blocks_url": "https://courses.edx.org/api/courses/v2/blocks/?course_id=ak%2FakSState%2F1T2014",
            "effort": "12 hours/week\n",
            "end": "2016-12-24T12:00:00Z",
            "enrollment_start": null,
            "enrollment_end": null,
            "id": "ak/akSState/1T2014",
            "media": {
                "course_image": {
                    "uri": "/c4x/ak/akSState/asset/images_course_image.jpg"
                },
                "course_video": {
                    "uri": "http://www.youtube.com/watch?v=jkfTkxVaSFg"
                },
                "image": {
                    "raw": "https://courses.edx.org/c4x/ak/akSState/asset/images_course_image.jpg",
                    "small": "https://courses.edx.org/c4x/ak/akSState/thumbnail/images_course_image-375x200.jpg",
                    "large": "https://courses.edx.org/c4x/ak/akSState/thumbnail/images_course_image-750x400.jpg"
                }
            },
            "name": "TestAK",
            "number": "3.091x",
            "org": "ak",
            "short_description": null,
            "start": "2015-09-15T00:00:00Z",
            "start_display": "Sept. 15, 2015",
            "start_type": "timestamp",
            "pacing": "instructor",
            "mobile_available": false,
            "hidden": false,
            "invitation_only": false,
            "course_id": "ak/akSState/1T2014"
        },
        {
            "blocks_url": "https://courses.edx.org/api/courses/v2/blocks/?course_id=ANUx%2FANU-ASTRO1x%2F1T2014",
            "effort": "03:00",
            "end": "2015-06-01T00:00:00Z",
            "enrollment_start": null,
            "enrollment_end": null,
            "id": "ANUx/ANU-ASTRO1x/1T2014",
            "media": {
                "course_image": {
                    "uri": "/c4x/ANUx/ANU-ASTRO1x/asset/dome_dashboard.jpg"
                },
                "course_video": {
                    "uri": null
                },
                "image": {
                    "raw": "https://courses.edx.org/c4x/ANUx/ANU-ASTRO1x/asset/dome_dashboard.jpg",
                    "small": "https://courses.edx.org/c4x/ANUx/ANU-ASTRO1x/thumbnail/dome_dashboard-375x200.jpg",
                    "large": "https://courses.edx.org/c4x/ANUx/ANU-ASTRO1x/thumbnail/dome_dashboard-750x400.jpg"
                }
            },
            "name": "Greatest Unsolved Mysteries of the Universe",
            "number": "ANU-ASTRO1x",
            "org": "ANUx",
            "short_description": "",
            "start": "2014-03-24T18:30:00Z",
            "start_display": "25 Mar 2014",
            "start_type": "string",
            "pacing": "instructor",
            "mobile_available": true,
            "hidden": false,
            "invitation_only": false,
            "course_id": "ANUx/ANU-ASTRO1x/1T2014"
        },
        {
            "blocks_url": "https://courses.edx.org/api/courses/v2/blocks/?course_id=ANUx%2FANU-ASTRO2x%2F2T2014",
            "effort": null,
            "end": "2015-09-15T00:00:00Z",
            "enrollment_start": null,
            "enrollment_end": null,
            "id": "ANUx/ANU-ASTRO2x/2T2014",
            "media": {
                "course_image": {
                    "uri": "/c4x/ANUx/ANU-ASTRO2x/asset/cassini_jupiter.jpg"
                },
                "course_video": {
                    "uri": null
                },
                "image": {
                    "raw": "https://courses.edx.org/c4x/ANUx/ANU-ASTRO2x/asset/cassini_jupiter.jpg",
                    "small": "https://courses.edx.org/c4x/ANUx/ANU-ASTRO2x/thumbnail/cassini_jupiter-375x200.jpg",
                    "large": "https://courses.edx.org/c4x/ANUx/ANU-ASTRO2x/thumbnail/cassini_jupiter-750x400.jpg"
                }
            },
            "name": "Exoplanets",
            "number": "ANU-ASTRO2x",
            "org": "ANUx",
            "short_description": "",
            "start": "2014-06-24T00:00:00Z",
            "start_display": "June 24, 2014",
            "start_type": "timestamp",
            "pacing": "instructor",
            "mobile_available": true,
            "hidden": false,
            "invitation_only": false,
            "course_id": "ANUx/ANU-ASTRO2x/2T2014"
        },
        {
            "blocks_url": "https://courses.edx.org/api/courses/v2/blocks/?course_id=ANUx%2FANU-ASTRO3x%2F4T2014",
            "effort": "03:00",
            "end": "2016-03-01T00:00:00Z",
            "enrollment_start": null,
            "enrollment_end": null,
            "id": "ANUx/ANU-ASTRO3x/4T2014",
            "media": {
                "course_image": {
                    "uri": "/c4x/ANUx/ANU-ASTRO3x/asset/course_image1.png"
                },
                "course_video": {
                    "uri": "http://www.youtube.com/watch?v=9Lu8nMgGUx4"
                },
                "image": {
                    "raw": "https://courses.edx.org/c4x/ANUx/ANU-ASTRO3x/asset/course_image1.png",
                    "small": "https://courses.edx.org/c4x/ANUx/ANU-ASTRO3x/thumbnail/course_image1-png-375x200.jpg",
                    "large": "https://courses.edx.org/c4x/ANUx/ANU-ASTRO3x/thumbnail/course_image1-png-750x400.jpg"
                }
            },
            "name": "The Violent Universe",
            "number": "ANU-ASTRO3x",
            "org": "ANUx",
            "short_description": "",
            "start": "2014-10-13T13:00:00Z",
            "start_display": "Oct. 13, 2014",
            "start_type": "timestamp",
            "pacing": "instructor",
            "mobile_available": true,
            "hidden": false,
            "invitation_only": false,
            "course_id": "ANUx/ANU-ASTRO3x/4T2014"
        },
        {
            "blocks_url": "https://courses.edx.org/api/courses/v2/blocks/?course_id=ANUx%2FANU-ASTRO4x%2F1T2015",
            "effort": null,
            "end": "2016-05-11T00:00:00Z",
            "enrollment_start": null,
            "enrollment_end": null,
            "id": "ANUx/ANU-ASTRO4x/1T2015",
            "media": {
                "course_image": {
                    "uri": "/c4x/ANUx/ANU-ASTRO4x/asset/ASTRO4x_dashboard_image.jpeg"
                },
                "course_video": {
                    "uri": null
                },
                "image": {
                    "raw": "https://courses.edx.org/c4x/ANUx/ANU-ASTRO4x/asset/ASTRO4x_dashboard_image.jpeg",
                    "small": "https://courses.edx.org/c4x/ANUx/ANU-ASTRO4x/thumbnail/ASTRO4x_dashboard_image-jpeg-375x200.jpg",
                    "large": "https://courses.edx.org/c4x/ANUx/ANU-ASTRO4x/thumbnail/ASTRO4x_dashboard_image-jpeg-750x400.jpg"
                }
            },
            "name": "COSMOLOGY",
            "number": "ANU-ASTRO4x",
            "org": "ANUx",
            "short_description": "",
            "start": "2015-02-03T00:00:00Z",
            "start_display": "Feb. 3, 2015",
            "start_type": "timestamp",
            "pacing": "instructor",
            "mobile_available": true,
            "hidden": false,
            "invitation_only": false,
            "course_id": "ANUx/ANU-ASTRO4x/1T2015"
        },
        {
            "blocks_url": "https://courses.edx.org/api/courses/v2/blocks/?course_id=ANUx%2FANU-INDIA1x%2F1T2014",
            "effort": "4-6",
            "end": "2014-07-21T01:00:00Z",
            "enrollment_start": "2013-01-05T13:00:00Z",
            "enrollment_end": null,
            "id": "ANUx/ANU-INDIA1x/1T2014",
            "media": {
                "course_image": {
                    "uri": "/c4x/ANUx/ANU-INDIA1x/asset/homepage_course_image.jpg"
                },
                "course_video": {
                    "uri": null
                },
                "image": {
                    "raw": "https://courses.edx.org/c4x/ANUx/ANU-INDIA1x/asset/homepage_course_image.jpg",
                    "small": "https://courses.edx.org/c4x/ANUx/ANU-INDIA1x/thumbnail/homepage_course_image-375x200.jpg",
                    "large": "https://courses.edx.org/c4x/ANUx/ANU-INDIA1x/thumbnail/homepage_course_image-750x400.jpg"
                }
            },
            "name": "Engaging India - Archived",
            "number": "ANU-INDIA1x",
            "org": "The Australian National University",
            "short_description": "",
            "start": "2014-04-29T01:00:00Z",
            "start_display": "April 29, 2014",
            "start_type": "timestamp",
            "pacing": "instructor",
            "mobile_available": true,
            "hidden": false,
            "invitation_only": false,
            "course_id": "ANUx/ANU-INDIA1x/1T2014"
        },
        {
            "blocks_url": "https://courses.edx.org/api/courses/v2/blocks/?course_id=arbi%2Fcs205%2F1T2014",
            "effort": null,
            "end": null,
            "enrollment_start": null,
            "enrollment_end": null,
            "id": "arbi/cs205/1T2014",
            "media": {
                "course_image": {
                    "uri": "/c4x/arbi/cs205/asset/images_course_image.jpg"
                },
                "course_video": {
                    "uri": null
                },
                "image": {
                    "raw": "https://courses.edx.org/c4x/arbi/cs205/asset/images_course_image.jpg",
                    "small": "https://courses.edx.org/c4x/arbi/cs205/asset/images_course_image.jpg",
                    "large": "https://courses.edx.org/c4x/arbi/cs205/asset/images_course_image.jpg"
                }
            },
            "name": "Test ORA RC",
            "number": "cs205",
            "org": "arbi",
            "short_description": "",
            "start": "2014-01-01T00:00:00Z",
            "start_display": "Jan. 1, 2014",
            "start_type": "timestamp",
            "pacing": "instructor",
            "mobile_available": false,
            "hidden": false,
            "invitation_only": false,
            "course_id": "arbi/cs205/1T2014"
        },
        {
            "blocks_url": "https://courses.edx.org/api/courses/v2/blocks/?course_id=BerkeleyX%2FBFV101x%2FT12015",
            "effort": null,
            "end": "2015-10-31T00:00:00Z",
            "enrollment_start": null,
            "enrollment_end": "2015-10-30T00:00:00Z",
            "id": "BerkeleyX/BFV101x/T12015",
            "media": {
                "course_image": {
                    "uri": "/c4x/BerkeleyX/BFV101x/asset/ThumbnailFinal.jpg"
                },
                "course_video": {
                    "uri": null
                },
                "image": {
                    "raw": "https://courses.edx.org/c4x/BerkeleyX/BFV101x/asset/ThumbnailFinal.jpg",
                    "small": "https://courses.edx.org/c4x/BerkeleyX/BFV101x/thumbnail/ThumbnailFinal-375x200.jpg",
                    "large": "https://courses.edx.org/c4x/BerkeleyX/BFV101x/thumbnail/ThumbnailFinal-750x400.jpg"
                }
            },
            "name": "Science at the Polls: Biology for Voters, Part 1",
            "number": "BFV101.1x",
            "org": "BerkeleyX",
            "short_description": "",
            "start": "2015-09-09T16:00:00Z",
            "start_display": "09/09/2015",
            "start_type": "string",
            "pacing": "instructor",
            "mobile_available": true,
            "hidden": false,
            "invitation_only": false,
            "course_id": "BerkeleyX/BFV101x/T12015"
        },
        {
            "blocks_url": "https://courses.edx.org/api/courses/v2/blocks/?course_id=BerkeleyX%2FBJC.1x%2F3T2015",
            "effort": null,
            "end": "2015-10-23T00:00:00Z",
            "enrollment_start": null,
            "enrollment_end": null,
            "id": "BerkeleyX/BJC.1x/3T2015",
            "media": {
                "course_image": {
                    "uri": "/c4x/BerkeleyX/BJC.1x/asset/1_thumb.jpg"
                },
                "course_video": {
                    "uri": null
                },
                "image": {
                    "raw": "https://courses.edx.org/c4x/BerkeleyX/BJC.1x/asset/1_thumb.jpg",
                    "small": "https://courses.edx.org/c4x/BerkeleyX/BJC.1x/thumbnail/1_thumb-375x200.jpg",
                    "large": "https://courses.edx.org/c4x/BerkeleyX/BJC.1x/thumbnail/1_thumb-750x400.jpg"
                }
            },
            "name": "The Beauty and Joy of Computing (CS Principles), Part 1",
            "number": "BJC.1x",
            "org": "BerkeleyX",
            "short_description": "",
            "start": "2015-09-07T00:00:00Z",
            "start_display": "September 8, 2015",
            "start_type": "string",
            "pacing": "instructor",
            "mobile_available": true,
            "hidden": false,
            "invitation_only": false,
            "course_id": "BerkeleyX/BJC.1x/3T2015"
        }
    ],
    "pagination": {
        "previous": null,
        "num_pages": 1250,
        "next": "https://courses.edx.org/api/courses/v1/courses/?page=2",
        "count": 12493
    }
}